128
Lattice="6.803470491332055 0.0 0.0 0.0 6.803470491332055 0.0 0.0 0.0 6.803470491332055" Properties=species:S:1:pos:R:3:forces:R:3:band_forces:R:3:rep_forces:R:3 energy=-1173.857336352695 band_energy=-1174.955955964218 rep_energy=1.098619611523069 structure_name=H_1 pbc="T T T"
H        0.31469271       2.82146302       0.88585436      -0.10862675       0.24634637       0.31150310      -0.08251948       0.22500376       0.25777659      -0.02610727       0.02134261       0.05372651
H        1.51039781       5.48213289       1.63961443       0.68403816      -1.28095086      -1.52958709       0.68412467      -1.28099021      -1.52965597      -0.00008651       0.00003935       0.00006888
H        4.40025012       4.86599436       4.78933192       0.30554818       0.79322862       1.03652017       0.30619325       0.82649111       1.04137070      -0.00064507      -0.03326249      -0.00485053
H        6.33119303       4.60866499       0.87558832      -0.41235296      -1.46249860      -0.93180268      -0.40472017      -1.46852644      -0.93628284      -0.00763279       0.00602784       0.00448016
H        4.32281561       5.87995089       3.38865531      -1.84199517      -0.20218391       0.27249538      -1.64769416      -0.15726029      -0.00758498      -0.19430101      -0.04492362       0.28008036
H        2.73406623       4.12393757       2.45104424       1.13844517       0.30872471       0.86478202       0.09047328      -0.26541077      -0.67581039       1.04797189       0.57413548       1.54059241
H        6.13963510       3.10035743       1.89005286       1.92712054       1.64286809      -0.08901645       1.83587930       1.64621525       0.01857815       0.09124124      -0.00334716      -0.10759460
H        4.32030202       2.16340413       4.77923416      -0.17880449      -1.55422854      -2.43858463      -0.18356686      -1.56172162      -2.42631873       0.00476237       0.00749308      -0.01226590
H        1.11229089       4.87480410       4.04721269      -1.27288999      -0.60284145      -0.34130001      -1.31220096      -0.58456251      -0.31566191       0.03931097      -0.01827894      -0.02563810
H        1.00418739       4.38697094       2.09813593      -0.63902528      -0.03549097       1.22373174      -0.63918101      -0.03522408       1.22402323       0.00015573      -0.00026689      -0.00029149
H        4.50459858       3.33043628       5.08060166      -1.05699313       1.43600645       0.47367292      -0.99970284       1.43926926       0.47714101      -0.05729029      -0.00326281      -0.00346809
H        2.81793659       5.44793746       2.76914433      -0.34653677       0.92163549      -0.25784961      -0.42496896       0.95162903      -0.18302390       0.07843219      -0.02999354      -0.07482571
H        6.09911705       1.29733729       4.00408474       0.64975841       1.27211744       0.09485539       0.64950053       1.26568937       0.09543887       0.00025788       0.00642807      -0.00058348
H        1.72698689       1.58235216       0.59983405       0.38941466       0.24081985       3.10835719       0.40346637       0.25092278       3.09155290      -0.01405171      -0.01010293       0.01680429
H        4.11536172       0.00636547       4.91908512       0.96588032       1.23933203       1.84549693       0.95534741       1.24046847       1.83885321       0.01053291      -0.00113644       0.00664372
H        0.29069453       5.13917471       4.36634414       0.20850737      -0.05758413       0.10208758       0.25766982      -0.07339389       0.08298042      -0.04916245       0.01580976       0.01910716
H        5.23713864       2.87829613       3.43590184      -2.37687705      -1.11876152       2.57424656      -2.36990656      -1.11427784       2.56460041      -0.00697049      -0.00448368       0.00964615
H        0.22797803       4.01719141       0.43604205      -1.30216767       0.89407651       0.72536266      -1.30959521       0.90030886       0.73005957       0.00742754      -0.00623235      -0.00469691
H        1.53759064       3.77151663       0.37408704       0.73941226      -1.67034910      -0.55550985       0.75931592      -1.66841387      -0.55208200      -0.01990366      -0.00193523      -0.00342785
H        4.39849378       5.76084685       0.31432070      -1.75111518      -0.38046090      -1.88645043      -1.75127438      -0.37631544      -1.88803131       0.00015920      -0.00414546       0.00158088
H        0.20103655       2.14762724       5.63546994       1.74331680       1.95874051      -0.26013359       1.70843551       1.94986298      -0.24265091       0.03488129       0.00887753      -0.01748268
H        0.49231476       6.01712580       5.61895167      -0.85089557       0.47862143       0.26083684      -0.70388706       0.46641786       0.34814020      -0.14700851       0.01220357      -0.08730336
H        4.42293330       1.04311684       3.18051349      -0.68324864       0.69011544      -0.25692784      -1.21540888      -0.26530425       0.62496080       0.53216024       0.95541969      -0.88188864
H        3.49776372       3.69873254       0.20854187       0.09823546      -0.16249099      -0.02982775       0.20288789      -0.17723212      -0.04822123      -0.10465243       0.01474113       0.01839348
H        1.18458232       3.04145259       5.33390241       1.39723077       1.15663593       0.55535858       1.38392887       1.15889262       0.53928080       0.01330190      -0.00225669       0.01607778
H        3.20376342       3.05311036       3.15950621       1.08198066      -0.19368933      -2.59428307       1.73835222      -1.08996458      -1.48361098      -0.65637156       0.89627525      -1.11067209
H        0.11119337       5.94374797       0.91291066       1.04886473       1.18671873      -1.58318468       1.03900758       0.84588559      -1.15614586       0.00985715       0.34083314      -0.42703882
H        0.64978944       2.51322786       0.09713101      -0.26549834       0.20636815      -1.12677394      -0.28911628       0.22808268      -1.07120010       0.02361794      -0.02171453      -0.05557384
H        2.11121878       1.65109123       2.51528636      -1.09209363       3.66901459      -3.11159367      -0.96933071       3.55258958      -2.96580394      -0.12276292       0.11642501      -0.14578973
H        4.33183226       1.64531579       5.63218904      -1.12551376      -2.08587301       0.32233388      -1.10147287      -2.05860875       0.32078561      -0.02404089      -0.02726426       0.00154827
H        2.43318027       4.00233899       3.93617596      -0.83135873      -0.52774632       1.18137598      -0.83269985      -0.53573589       1.18413945       0.00134112       0.00798957      -0.00276347
H        0.56438659       3.14665885       4.58488905      -0.48023926       0.35839783      -0.19424747      -0.48386154       0.34787940      -0.19351876       0.00362228       0.01051843      -0.00072871
H        1.64484429       4.10075961       5.85706873       0.04587066      -0.52693318      -1.19882145       0.04577727      -0.52677984      -1.19860119       0.00009339      -0.00015334      -0.00022026
H        3.26786319       2.17510476       4.65790493      -0.90900544      -2.58103803      -0.46451951      -0.90380904      -2.58024918      -0.46433325      -0.00519640      -0.00078885      -0.00018626
H        0.77182618       6.48951757       4.38703021      -1.99937965       1.45668430      -0.94595368      -1.99911822       1.45689999      -0.94578901      -0.00026143      -0.00021569      -0.00016467
H        4.31293534       6.70106834       6.61702018      -1.85909539      -0.54496596      -0.09595975      -1.85826160      -0.54882889      -0.09385991      -0.00083379       0.00386293      -0.00209984
H        5.44927734       1.48127825       2.49258413       0.82726822       0.16972663       1.65145497      -0.82910787       0.71874156       0.16176743       1.65637609      -0.54901493       1.48968754
H        5.03330909       1.19186010       6.53067909       0.04533033       0.59317365       1.59682827       0.04521434       0.59375964       1.59639687       0.00011599      -0.00058599       0.00043140
H        1.74746287       2.07755570       3.87806065      -0.20305473       0.24714088       0.69603909      -0.28672471       0.19717545       0.70696179       0.08366998       0.04996543      -0.01092270
H        2.44945300       2.06623131       0.16097572       1.62499495       0.82038756       0.35032305       1.60825496       0.80928346       0.36022053       0.01673999       0.01110410      -0.00989748
H        4.41848345       5.80618146       4.92643540       0.42854780      -2.25269021       0.59010376       0.42613337      -2.28009424       0.58521033       0.00241443       0.02740403       0.00489343
H        6.75051361       1.63500741       1.50418474       0.57258773       1.22099778      -1.28581787       0.59795209       1.22232450      -1.24212372      -0.02536436      -0.00132672      -0.04369415
H        2.48954824       0.16617647       4.01666382       0.91896287       0.71752451      -1.24879602       0.93725032       0.72262870      -1.23677724      -0.01828745      -0.00510419      -0.01201878
H        1.17706536       2.93466462       1.53408220      -0.00009677      -0.31398763       1.19235870       0.05240057      -0.31927300       1.19240764      -0.05249734       0.00528537      -0.00004894
H        2.20759836       5.68146655       3.35125941      -0.35511261       1.27212899      -0.89698801      -0.27667116       1.24211553      -0.97180219      -0.07844145       0.03001346       0.07481418
H        6.14037065       5.86449203       5.51349458       0.22843698       1.95735639      -2.02308793       0.22009303       1.91591993      -2.01171620       0.00834395       0.04143646      -0.01137173
H        0.10639320       5.44757973       1.49698264       0.17008081      -0.37271112       1.67687659       0.17341982      -0.01095323       1.25057366      -0.00333901      -0.36175789       0.42630293
H        4.30961264       6.49946663       1.22668631      -0.18661712       1.45863059       0.42058131      -0.33344861       1.50130448       0.71672589       0.14683149      -0.04267389      -0.29614458
H        2.68856174       5.57211102       6.60587518       0.39304697      -0.63311978       0.68103395       0.40498068      -0.63993456       0.67140999      -0.01193371       0.00681478       0.00962396
H        5.81181561       0.01777083       6.29748391       0.63615361      -0.27472222      -0.12582115       0.52681429      -0.39520897       0.03556964       0.10933932       0.12048675      -0.16139079
H        1.23335553       2.81709678       2.95180414      -0.60109433       0.59990304      -0.88642006      -0.60107564       0.59990728      -0.88637764      -0.00001869      -0.00000424      -0.00004242
H        2.92535798       0.71889258       6.31318724      -0.09434375      -0.59661936      -1.58292652      -0.09207298      -0.59508095      -1.58115710      -0.00227077      -0.00153841      -0.00176942
H        0.24423170       1.77400746       2.36356066       1.48027979       2.39744210       0.47769115       1.41191672       2.28335120       0.50958865       0.06836307       0.11409090      -0.03189750
H        6.00484836       5.87080670       4.42667035      -0.15293891      -0.60326100       3.39916881      -0.15416752      -0.60132318       3.38213930       0.00122861      -0.00193782       0.01702951
H        6.63494500       0.07363978       0.95082092      -0.18614777       0.30622062      -0.35690029      -0.18002581       0.28540612      -0.35762785      -0.00612196       0.02081450       0.00072756
H        6.63695111       3.79944608       5.49021078      -1.09458871       0.60094367       0.26106835      -1.08072121       0.61868082       0.27117634      -0.01386750      -0.01773715      -0.01010799
H        6.74644847       1.14297523       2.86274414      -0.42131957      -0.96870057       2.27903775      -0.37121079      -0.86534218       2.19399736      -0.05010878      -0.10335839       0.08504039
H        5.03839501       3.65136641       4.35339517       0.78435796       0.44364504      -2.80597420       0.76777360       0.43348920      -2.78348018       0.01658436       0.01015584      -0.02249402
H        5.27796520       3.20655642       5.57759382       1.42922974       0.94103074       2.51217364       1.38790885       0.94512449       2.48690452       0.04132089      -0.00409375       0.02526912
H        3.26245024       3.72684772       5.39231246       0.06293606       2.05512596       0.43442904       0.07148147       1.91944208       0.46468611      -0.00854541       0.13568388      -0.03025707
H        5.41582698       6.38527229       0.07619094       2.25025349       0.38919901       0.28968971       2.35939661       0.51012883       0.12813997      -0.10914312      -0.12092982       0.16154974
H        1.34439703       1.42485790       6.45005682      -2.14509481      -0.74576816      -1.37127744      -2.04946689      -1.00589375      -1.39384079      -0.09562792       0.26012559       0.02256335
H        4.01599811       4.27696505       3.49970474      -0.05966927      -0.25491337       1.15621133      -0.72079141       0.30276313       1.36734343       0.66112214      -0.55767650      -0.21113210
H        6.29827714       2.55233353       6.14030503      -0.65263476       2.56216435       0.86404741      -0.63079135       2.54961216       0.84840016      -0.02184341       0.01255219       0.01564725
H        5.96056469       4.99575550       5.80268995      -0.87571117      -1.96012583       0.43229281      -0.93114841      -1.90621259       0.51605980       0.05543724      -0.05391324      -0.08376699
H        5.78730571       3.21846238       2.66430267      -1.06494797       0.67076212      -0.90786033      -0.89231040       0.65062435      -0.96055591      -0.17263757       0.02013777       0.05269558
H        2.25937412       6.49189040       6.16110223       0.95431265       1.15071092       0.20850290       0.95443220       1.14927621       0.20932605      -0.00011955       0.00143471      -0.00082315
H        6.06756645       0.25528992       4.07411606       1.20465076       0.53931417      -0.83484257       1.20421582       0.54558557      -0.83498459       0.00043494      -0.00627140       0.00014202
H        3.68336682       1.99023034       1.71781571      -0.29002817       1.21664345       0.90905795      -0.26683511       1.34206703       0.66203029      -0.02319306      -0.12542358       0.24702766
H        5.48450890       5.08751695       6.52796494      -1.58175201      -1.95903293       2.08566537      -1.51768842      -1.97136676       1.98806393      -0.06406359       0.01233383       0.09760144
H        2.73025615       1.44767602       3.06806544       2.98000979       0.91085929       0.38093895       2.51212284       0.56037442       0.20281580       0.46788695       0.35048487       0.17812315
H        1.56770189       1.82926785       5.40903552       0.16197660      -1.16773467      -0.35519952       0.16341177      -1.16718228      -0.35350183      -0.00143517      -0.00055239      -0.00169769
H        2.44539686       6.20134669       1.21685420      -0.25190165      -0.96160343      -1.04579540       0.04158520      -0.08525927      -0.52990826      -0.29348685      -0.87634416      -0.51588714
H        3.40088671       5.09667225       6.11242798      -0.13677976      -0.73680829      -0.40088062      -0.14951076      -0.72831728      -0.39208066       0.01273100      -0.00849101      -0.00879996
H        6.53735149       3.24399518       3.08796251       3.02032866       0.61461194       0.66336213       2.90255310       0.60356336       0.60974792       0.11777556       0.01104858       0.05361421
H        5.51843498       5.97722901       2.06352827       2.71898285       0.10421704      -1.11178506       2.70129583       0.09323570      -1.11860471       0.01768702       0.01098134       0.00681965
H        5.34882679       6.16427147       3.68624448      -0.43464016       1.33296487       0.83360379      -0.41850220       1.32521415       0.83456438      -0.01613796       0.00775072      -0.00096059
H        4.97288499       1.63918685       2.06412465      -1.42982693       0.23242098      -0.78924565       0.22652885      -0.31660627       0.70045158      -1.65635578       0.54902725      -1.48969723
H        3.47130591       4.73098960       3.68041348      -0.75461493       0.26336003       0.81893178      -0.08491035      -0.29492131       0.59672844      -0.66970458       0.55828134       0.22220334
H        2.21488725       0.88691747       2.95491147      -0.96790759      -3.98292478       0.72192593      -0.62278315      -3.51603577       0.75428352      -0.34512444      -0.46688901      -0.03235759
H        6.61091559       0.21564502       2.30386417      -2.10079728      -2.49959896       1.06797719      -2.10044781      -2.49723164       1.06939598      -0.00034947      -0.00236732      -0.00141879
H        0.38012072       5.19763397       2.71342090      -1.77447413       0.78004194      -0.30226756      -1.77430378       0.77980843      -0.30252342      -0.00017035       0.00023351       0.00025586
H        6.50312113       1.32304314       5.70664375      -0.07430601      -1.85162727      -0.65604427       0.13915389      -2.58913440       0.15328864      -0.21345990       0.73750713      -0.80933291
H        2.09280871       2.85211350       1.56615352      -0.00962338      -2.11796129       0.15439304      -0.06445509      -2.11237854       0.15267271       0.05483171      -0.00558275       0.00172033
H        3.75135445       2.35802017       0.99349377      -0.19452019       1.53388235       0.85397119      -0.21770686       1.40845039       1.10099574       0.02318667       0.12543196      -0.24702455
H        6.26462253       5.83444640       3.46032866       2.63835090      -0.79633178      -3.10121576       2.62117377      -0.79121268      -3.08430137       0.01717713      -0.00511910      -0.01691439
H        1.09445709       0.09245150       2.88364611       0.40524447      -0.61868574      -0.29588809       0.40689974      -0.61871407      -0.30048251      -0.00165527       0.00002833       0.00459442
H        4.27922834       3.79791887       1.99056372       0.49086330      -2.11416222       0.52102644       0.51478674      -2.08444215       0.56993001      -0.02392344      -0.02972007      -0.04890357
H        2.49102041       2.31541135       5.78291354      -0.36744808      -1.45650116       0.26123146      -0.36147699      -1.45212765       0.25893111      -0.00597109      -0.00437351       0.00230035
H        4.27529073       5.08739577       1.67563870      -2.28749258      -0.65090365      -0.99722302      -2.31422003      -0.70997717      -1.10008128       0.02672745       0.05907352       0.10285826
H        1.92701536       4.55050153       0.88981154      -0.26513041       3.01687972       1.85079994      -0.27064673       3.00869577       1.84276588       0.00551632       0.00818395       0.00803406
H        5.83081889       0.87230742       1.30112514      -1.26382907      -1.09837091      -0.80946476      -1.26334088      -1.09849670      -0.80954274      -0.00048819       0.00012579       0.00007798
H        3.74205310       0.87009916       0.93119321       0.25795563      -0.52041864       0.23532772       0.25519768      -0.50377018       0.19748225       0.00275795      -0.01664846       0.03784547
H        1.57553212       0.43393011       4.86170432      -1.80571845       1.43376817      -0.70609697      -1.80270083       1.42575965      -0.70592711      -0.00301762       0.00800852      -0.00016986
H        5.65786578       1.82428089       5.01682416       0.43004838       0.24325514      -3.42361926       0.43014232       0.24315823      -3.42329483      -0.00009394       0.00009691      -0.00032443
H        5.55441903       2.33262072       0.69762601      -0.68448359      -0.98906912      -2.75386086      -0.72910730      -0.83229007      -2.48660077       0.04462371      -0.15677905      -0.26726009
H        0.53846219       1.10418866       0.88755407       1.82150883      -0.80328576      -0.57676155       1.81380304      -0.79648580      -0.56876689       0.00770579      -0.00679996      -0.00799466
H        1.61528868       0.66067250       6.36774012      -0.41691603      -1.33674638      -1.06954515      -0.50938192      -1.07548496      -1.04143961       0.09246589      -0.26126142      -0.02810554
H        1.21976573       5.95734623       6.04955114      -0.82206281      -0.84123000       1.54762512      -0.96916276      -0.82887650       1.46032482       0.14709995      -0.01235350       0.08730030
H        5.02742623       2.21016858       5.95218887       1.16499813       0.66525686       2.45918207       1.14172794       0.64747487       2.44716432       0.02327019       0.01778199       0.01201775
H        2.60729705       5.09382580       5.03066850       1.36775949      -0.72821151       0.54432100       1.22183406      -0.71105592       0.47341466       0.14592543      -0.01715559       0.07090634
H        3.49190626       2.65965015       3.64708378       1.74949290      -1.09857075      -1.45506519       1.09291625      -0.20272564      -2.56483015       0.65657665      -0.89584511       1.10976496
H        6.69273433       2.81765242       3.97172608      -0.38737582      -0.55627639       0.47813154      -0.37294945      -0.54106831       0.47913769      -0.01442637      -0.01520808      -0.00100615
H        6.63016653       0.84246658       6.22031663       1.21708275      -1.68562763       0.85702299       1.01593415      -0.92702390       0.04570715       0.20114860      -0.75860373       0.81131584
H        1.48690076       4.88965758       6.74794445      -0.35413155       2.02234070      -1.32945691      -0.35306574       2.02106244      -1.32742758      -0.00106581       0.00127826      -0.00202933
H        3.31520445       2.88777952       5.57945176      -0.09219187       1.80649176       0.87880787      -0.10839321       1.93645743       0.84991267       0.01620134      -0.12996567       0.02889520
H        1.45356576       0.08531660       1.88540562      -1.55791295       0.72283907       0.96581759      -1.55941067       0.72285708       0.97036778       0.00149772      -0.00001801      -0.00455019
H        2.64499987       6.79722091       1.56758282       1.14947158       1.42747507      -0.66164951       0.85575487       0.55108181      -1.17745455       0.29371671       0.87639326       0.51580504
H        2.26892048       3.04193837       4.26879508      -1.02650590       1.08409697       1.08438830      -1.02543699       1.09154077       1.08138412      -0.00106891      -0.00744380       0.00300418
H        5.16309458       5.45653394       1.31473876       3.40331159       0.01274441       0.08057814       3.40305451       0.02059851       0.09961843       0.00025708      -0.00785410      -0.01904029
H        5.13293676       0.44417498       4.75470150      -0.85204830      -0.02154192       1.42915428      -0.85304770      -0.02226896       1.42904954       0.00099940       0.00072704       0.00010474
H        4.35465620       3.58249346       0.05929484       1.62193002      -0.67122651      -0.01180825       1.51606685      -0.65686597       0.00663019       0.10586317      -0.01436054      -0.01843844
H        2.42174687       3.34869396       0.23670204       0.11093509      -0.49492691       0.01091919       0.09671799      -0.48720234       0.01328288       0.01421710      -0.00772457      -0.00236369
H        3.95635348       6.60288586       1.93996485      -0.41721674       0.78385176       0.74267632      -0.27032390       0.74083391       0.44614700      -0.14689284       0.04301785       0.29652932
H        5.73523308       4.74725598       3.35203730      -0.21512310      -2.38307114      -0.13972246      -0.21502067      -2.38285158      -0.13970369      -0.00010243      -0.00021956      -0.00001877
H        5.43937590       2.73680842       1.38664178      -1.29174142       0.77440334      -1.47208922      -1.21521965       0.63418038      -1.71640969      -0.07652177       0.14022296       0.24432047
H        0.37737799       4.49579095       5.88736889       0.03360706      -0.54649771      -0.13803203       0.01974572      -0.56423810      -0.14815399       0.01386134       0.01774039       0.01012196
H        3.28620712       0.38937444       4.53097595      -0.81200251       0.57134251       0.29098193      -0.81659363       0.55983290       0.28549349       0.00459112       0.01150961       0.00548844
H        2.37244343       3.92582102       1.91943278       0.56178221       0.18079558      -0.73648874       1.60957531       0.75433556       0.80385948      -1.04779310      -0.57353998      -1.54034822
H        4.03038379       4.64532533       0.96792922      -0.96362353       1.09846884      -0.52787574      -0.92912214       1.16073881      -0.42817952      -0.03450139      -0.06226997      -0.09969622
H        4.63135293       4.23489175       2.71051096       2.14649655      -0.71230619      -0.37346879       2.11394622      -0.74140115      -0.41132135       0.03255033       0.02909496       0.03785256
H        4.77165846       5.98351458       2.73367728      -0.95003439      -0.17730104       0.02871791      -1.13155053      -0.22152156       0.30140899       0.18151614       0.04422052      -0.27269108
H        0.99500881       1.62442122       3.97419681      -1.00276376      -1.62805040       1.10430242      -0.91880575      -1.57749015       1.09357565      -0.08395801      -0.05056025       0.01072677
H        1.96851661       6.28553297       4.90575092       0.87231677      -0.67661008       0.86170165       0.86903409      -0.66991127       0.86100277       0.00328268      -0.00669881       0.00069888
H        4.15845527       0.56830091       3.61879132      -0.38613503       0.56176029      -0.65124221       0.14600497       1.51718222      -1.53310004      -0.53214000      -0.95542193       0.88185783
H        1.84620840       5.18324988       4.66079900       0.78008322       0.00536224       0.69165638       0.91649135      -0.01468433       0.75476356      -0.13640813       0.02004657      -0.06310718
H        1.22505909       4.08222888       3.28853127       0.29745270      -1.83782841      -1.33972824       0.29720999      -1.83622638      -1.33831253       0.00024271      -0.00160203      -0.00141571
H        3.67950488       1.24690564       0.07487911      -0.13689917      -0.98436593      -0.08656675      -0.13651525      -1.00269300      -0.05050109      -0.00038392       0.01832707      -0.03606566
