#---------------rconf={'H': [4.186810030157013, 2.496243854558594]}---------------
calculate H's hamitonian
calculate H's hamitonian
###Write skf file###
config_a=1s1
config_b=1s1
#r0 for eigenvalue calculation:a,b=[4.186810030157013, 2.496243854558594],[4.186810030157013, 2.496243854558594]
config_a=1s1
config_b=1s1
#r0 for eigenvalue calculation:a,b=[4.186810030157013, 2.496243854558594],[4.186810030157013, 2.496243854558594]
config_a=1s1
config_b=1s1
#r0 for eigenvalue calculation:a,b=[4.186810030157013, 2.496243854558594],[4.186810030157013, 2.496243854558594]
config_a=1s1
config_b=1s1
#r0 for eigenvalue calculation:a,b=[4.186810030157013, 2.496243854558594],[4.186810030157013, 2.496243854558594]
Parallel hotcent calculation finished!
