#---------------rconf={'H': [1.1462931287356928, 3.826960275883854]}---------------
calculate H's hamitonian
calculate H's hamitonian
###Write skf file###
config_a=1s1
config_b=1s1
#r0 for eigenvalue calculation:a,b=[1.1462931287356928, 3.826960275883854],[1.1462931287356928, 3.826960275883854]
config_a=1s1
config_b=1s1
#r0 for eigenvalue calculation:a,b=[1.1462931287356928, 3.826960275883854],[1.1462931287356928, 3.826960275883854]
config_a=1s1
config_b=1s1
#r0 for eigenvalue calculation:a,b=[1.1462931287356928, 3.826960275883854],[1.1462931287356928, 3.826960275883854]
config_a=1s1
config_b=1s1
#r0 for eigenvalue calculation:a,b=[1.1462931287356928, 3.826960275883854],[1.1462931287356928, 3.826960275883854]
Parallel hotcent calculation finished!
