128
Lattice="6.803470491332055 0.0 0.0 0.0 6.803470491332055 0.0 0.0 0.0 6.803470491332055" Properties=species:S:1:pos:R:3:forces:R:3:charge:R:1 energy=-1102.7022793009414 stress="-0.5694093125396376 -0.0016406203766234904 0.006966025451901923 -0.0016406203766234904 -0.5762560411123624 0.026897399001606002 0.006966025451901923 0.026897399001606002 -0.5404656706100053" pbc="T T T"
H        0.31469271       2.82146302       0.88585436       0.65587469      -0.26661611      -0.79246024       0.04639177
H        1.51039781       5.48213289       1.63961443       0.74799968      -1.26789156      -1.44851225      -0.08358673
H        4.40025012       4.86599436       4.78933192       0.58057203       2.10164648       1.46602819      -0.09176200
H        6.33119303       4.60866499       0.87558832       0.07031544      -2.29034718      -1.04098247      -0.07591442
H        4.32281561       5.87995089       3.38865531      -0.44895862       0.21782277      -1.48811435      -0.02168578
H        2.73406623       4.12393757       2.45104424      -1.24573213      -0.96212777      -2.83081914       0.00215087
H        6.13963510       3.10035743       1.89005286       0.79907927       1.82964622       0.74436712       0.01174392
H        4.32030202       2.16340413       4.77923416      -0.66382629      -1.85449806      -2.09455216       0.00128181
H        1.11229089       4.87480410       4.04721269      -2.09673435      -0.41445304       0.29826260       0.06548555
H        1.00418739       4.38697094       2.09813593      -0.93764738      -0.15156445       1.26116472       0.00696663
H        4.50459858       3.33043628       5.08060166       0.41933190       1.39688191       0.40652494       0.15084637
H        2.81793659       5.44793746       2.76914433      -1.46607086       1.61925905       0.73648060      -0.02312749
H        6.09911705       1.29733729       4.00408474       0.69155746       0.61197974       0.12488562      -0.03796862
H        1.72698689       1.58235216       0.59983405       1.38186472       0.41637951       2.62323102      -0.04038289
H        4.11536172       0.00636547       4.91908512       0.66445654       1.23279279       1.68163691      -0.00064676
H        0.29069453       5.13917471       4.36634414       1.13236391      -0.90085587      -0.31698278       0.02369388
H        5.23713864       2.87829613       3.43590184      -2.39595360      -1.27711026       2.11603575      -0.24240154
H        0.22797803       4.01719141       0.43604205      -2.04287529       1.44698447       1.18368213      -0.06340915
H        1.53759064       3.77151663       0.37408704       1.84505325      -1.63241163      -0.30548740       0.18432449
H        4.39849378       5.76084685       0.31432070      -1.88868927       0.50468252      -2.19107974       0.04913922
H        0.20103655       2.14762724       5.63546994       0.46212908       1.97412039       0.09306739       0.12825792
H        0.49231476       6.01712580       5.61895167       0.50149858       0.57847324       1.40025963      -0.03665100
H        4.42293330       1.04311684       3.18051349      -2.22984957      -1.97363579       2.33689625      -0.05839863
H        3.49776372       3.69873254       0.20854187       1.37743556      -0.40862556      -0.17091751       0.07845072
H        1.18458232       3.04145259       5.33390241       0.78750810       1.31456501      -0.04857848      -0.01508760
H        3.20376342       3.05311036       3.15950621       2.78035957      -2.74787326       0.23350272      -0.03047507
H        0.11119337       5.94374797       0.91291066       1.02406684       0.31455744      -0.08675690      -0.00463069
H        0.64978944       2.51322786       0.09713101      -0.67172628       0.72318321       0.15092347      -0.01858314
H        2.11121878       1.65109123       2.51528636      -0.31025772       2.50398169      -2.29915129       0.17344436
H        4.33183226       1.64531579       5.63218904      -0.71150312      -1.17303198       0.15795225       0.11857018
H        2.43318027       4.00233899       3.93617596      -0.96394944      -1.43579694       1.46692315      -0.04733664
H        0.56438659       3.14665885       4.58488905      -0.40594452       0.11268053      -0.17207355       0.05987371
H        1.64484429       4.10075961       5.85706873       0.08047013      -0.45849655      -1.06335853      -0.17605646
H        3.26786319       2.17510476       4.65790493      -0.46206782      -2.63904036      -0.56428232      -0.04149730
H        0.77182618       6.48951757       4.38703021      -2.04526631       1.76874910      -1.14581154      -0.18909571
H        4.31293534       6.70106834       6.61702018      -1.99148244      -1.45790237      -0.13409327      -0.03719457
H        5.44927734       1.48127825       2.49258413      -2.83831713       1.38230113      -1.59286635       0.06168910
H        5.03330909       1.19186010       6.53067909       0.09087740       0.74927040       1.64037906      -0.11348673
H        1.74746287       2.07755570       3.87806065      -1.34642561      -0.43390171       0.90460695       0.05093366
H        2.44945300       2.06623131       0.16097572       0.67947388       0.18170874       0.70426843      -0.04747525
H        4.41848345       5.80618146       4.92643540       0.15772791      -3.13423381       0.59655502      -0.01506328
H        6.75051361       1.63500741       1.50418474       1.24308356       0.80021560      -0.74585046       0.09672040
H        2.48954824       0.16617647       4.01666382       1.82791317       0.93040734      -0.71624349      -0.06946104
H        1.17706536       2.93466462       1.53408220       1.12250236      -0.36267527       0.91545363       0.02546650
H        2.20759836       5.68146655       3.35125941       0.81122077       0.75997237      -2.19312771      -0.03406000
H        6.14037065       5.86449203       5.51349458       0.17769910       1.31342347      -2.33932802      -0.01466994
H        0.10639320       5.44757973       1.49698264       0.11223874       1.14505927      -0.15980162       0.14014283
H        4.30961264       6.49946663       1.22668631      -1.08945893       1.60464246       2.59741119       0.09547349
H        2.68856174       5.57211102       6.60587518       1.09915047      -0.78433794       0.14831297      -0.01115783
H        5.81181561       0.01777083       6.29748391      -0.30377992      -1.63070490       1.32748268      -0.03564554
H        1.23335553       2.81709678       2.95180414      -0.28000583       0.62638523      -0.64164748      -0.25576498
H        2.92535798       0.71889258       6.31318724       0.20836912      -0.51584119      -1.69560753      -0.13261383
H        0.24423170       1.77400746       2.36356066       0.62752001       0.96877045       0.37567761      -0.00354627
H        6.00484836       5.87080670       4.42667035      -0.41097325      -0.62300577       2.92340398       0.10012506
H        6.63494500       0.07363978       0.95082092       0.06044047      -0.12915706      -0.48256147       0.07439677
H        6.63695111       3.79944608       5.49021078      -0.45330472       1.54868157       0.53481682      -0.07600482
H        6.74644847       1.14297523       2.86274414       0.10924768      -0.19952130       1.10443358       0.06882256
H        5.03839501       3.65136641       4.35339517       0.69840331       0.22798140      -2.25500117       0.03563875
H        5.27796520       3.20655642       5.57759382       0.30702259       0.86491279       2.11097461      -0.00703130
H        3.26245024       3.72684772       5.39231246       0.19921216       0.17601241       0.69127986      -0.10267131
H        5.41582698       6.38527229       0.07619094       3.25971454       1.53167622      -1.00758553       0.08730577
H        1.34439703       1.42485790       6.45005682      -1.17505958      -2.55756278      -1.48714307       0.14243772
H        4.01599811       4.27696505       3.49970474      -2.21824457       1.67565103       1.51455884       0.09566135
H        6.29827714       2.55233353       6.14030503       0.28147756       1.98795399       0.34318991      -0.00900101
H        5.96056469       4.99575550       5.80268995      -1.81586569      -0.96350877       1.43124235       0.12173816
H        5.78730571       3.21846238       2.66430267       0.28914618       0.35509212      -1.21280332       0.19225967
H        2.25937412       6.49189040       6.16110223       1.07884331       0.83858390       0.29109483       0.00295743
H        6.06756645       0.25528992       4.07411606       1.23285766       1.28472017      -0.78419534       0.00230604
H        3.68336682       1.99023034       1.71781571      -0.26192257       2.28779212      -0.87551062      -0.05720530
H        5.48450890       5.08751695       6.52796494      -0.97573398      -2.47137413       0.69546624      -0.17284842
H        2.73025615       1.44767602       3.06806544       0.89384576      -0.39109465      -0.61648521       0.19326150
H        1.56770189       1.82926785       5.40903552       0.67048530      -0.92490977       0.00748938      -0.03596230
H        2.44539686       6.20134669       1.21685420       1.01050220       1.78136529       0.27695022       0.06204863
H        3.40088671       5.09667225       6.11242798      -0.63518210      -0.27985272       0.25189094      -0.06061317
H        6.53735149       3.24399518       3.08796251       2.13357658       0.54921515       0.80172136       0.14804462
H        5.51843498       5.97722901       2.06352827       1.76615765      -0.47480302      -1.60974608      -0.12182625
H        5.34882679       6.16427147       3.68624448       0.36786646       1.03425512       0.87624324       0.20765504
H        4.97288499       1.63918685       2.06412465       2.16612969      -0.90434157       2.54285423       0.03977874
H        3.47130591       4.73098960       3.68041348       1.54633777      -1.76152572       0.13064243       0.00269982
H        2.21488725       0.88691747       2.95491147       0.45424178      -1.86698917       0.62313032       0.20917844
H        6.61091559       0.21564502       2.30386417      -2.05358462      -2.07106008       1.36175603      -0.15127989
H        0.38012072       5.19763397       2.71342090      -1.65898964       0.83579107      -0.46033742      -0.10838601
H        6.50312113       1.32304314       5.70664375       0.84712256      -3.86535079       1.58869681       0.10267985
H        2.09280871       2.85211350       1.56615352      -1.21815812      -1.84287031       0.15612767      -0.03852914
H        3.75135445       2.35802017       0.99349377      -0.32558437       0.62172842       2.83115407       0.06410934
H        6.26462253       5.83444640       3.46032866       1.92790777      -0.26181606      -2.49021521       0.17362589
H        1.09445709       0.09245150       2.88364611       0.65294515      -0.72634786      -0.67977909      -0.08119801
H        4.27922834       3.79791887       1.99056372       1.17939240      -1.82629383       1.60310409      -0.12689756
H        2.49102041       2.31541135       5.78291354      -0.28566587      -1.55873021       0.18838686      -0.03161059
H        4.27529073       5.08739577       1.67563870      -2.71432948      -1.22909104      -2.51068119       0.09035018
H        1.92701536       4.55050153       0.88981154      -0.45984746       2.70191355       1.14482630       0.04178692
H        5.83081889       0.87230742       1.30112514      -1.34459142      -1.35726268      -1.22081464      -0.11634919
H        3.74205310       0.87009916       0.93119321       0.16294381       0.21463404      -0.87782651      -0.08916451
H        1.57553212       0.43393011       4.86170432      -1.58917081       0.65026310      -0.57067103       0.04276743
H        5.65786578       1.82428089       5.01682416       0.41071958       0.45375436      -3.31440867      -0.11584952
H        5.55441903       2.33262072       0.69762601      -1.03145947       0.23301149      -0.99198690      -0.10963994
H        0.53846219       1.10418866       0.88755407       1.40983079      -0.60588516       0.02281575      -0.10497910
H        1.61528868       0.66067250       6.36774012      -1.28621128       0.33608641      -0.56580458       0.04129748
H        1.21976573       5.95734623       6.04955114      -2.35815698      -0.43389901       0.79784337      -0.03335087
H        5.02742623       2.21016858       5.95218887       0.49394418       0.30571577       2.04582105       0.16850652
H        2.60729705       5.09382580       5.03066850      -0.02619531      -0.27876855      -0.33243240       0.01516308
H        3.49190626       2.65965015       3.64708378       0.11081946       1.35642235      -4.36304019       0.01192831
H        6.69273433       2.81765242       3.97172608      -0.06637877       0.19683046       0.42341761      -0.06461701
H        6.63016653       0.84246658       6.22031663       0.69969369       0.45558634      -1.59395764      -0.06712290
H        1.48690076       4.88965758       6.74794445      -0.24108095       1.84909870      -0.95366850       0.02125696
H        3.31520445       2.88777952       5.57945176      -0.53382512       3.10316702       0.68143169       0.11421413
H        1.45356576       0.08531660       1.88540562      -2.02865419       0.90656520       1.29052941      -0.02405772
H        2.64499987       6.79722091       1.56758282       0.05149907      -1.07849317      -2.28509743       0.00520176
H        2.26892048       3.04193837       4.26879508      -0.86952267       1.73113087       0.71076270      -0.05928637
H        5.16309458       5.45653394       1.31473876       3.47872524       0.41726064       1.11555590       0.06492715
H        5.13293676       0.44417498       4.75470150      -1.01082249      -0.15803791       1.61371494      -0.07153670
H        4.35465620       3.58249346       0.05929484       0.44817239      -0.42493872       0.13838900      -0.11203173
H        2.42174687       3.34869396       0.23670204      -0.54650320       0.13393214       0.07779419      -0.11614443
H        3.95635348       6.60288586       1.93996485       0.78456522       0.43785482      -1.16912237      -0.11175983
H        5.73523308       4.74725598       3.35203730      -0.10662217      -2.57612580       0.09207183      -0.41186545
H        5.43937590       2.73680842       1.38664178      -0.54772679       0.22792973      -2.93251316       0.09040157
H        0.37737799       4.49579095       5.88736889      -0.69740907      -1.42887651      -0.69447041       0.03822310
H        3.28620712       0.38937444       4.53097595      -1.08101572       0.15071293       0.19960195      -0.04662096
H        2.37244343       3.92582102       1.91943278       3.16246452       1.38058029       2.68962929       0.05498079
H        4.03038379       4.64532533       0.96792922      -0.85180591       2.20310329       1.07468102      -0.01414929
H        4.63135293       4.23489175       2.71051096       1.23639448      -1.42378824      -1.47250968       0.05288576
H        4.77165846       5.98351458       2.73367728      -1.73573485      -0.39888269       1.63870453       0.14968082
H        0.99500881       1.62442122       3.97419681       0.17826032      -1.10959844       0.84630190      -0.10976016
H        1.96851661       6.28553297       4.90575092       0.67402794      -0.06590968       0.85354410       0.14276858
H        4.15845527       0.56830091       3.61879132       1.06527077       3.28114443      -3.22239224      -0.00446941
H        1.84620840       5.18324988       4.66079900       1.93628923      -0.05188041       1.28559147       0.12702489
H        1.22505909       4.08222888       3.28853127       0.19066989      -1.48932811      -1.08101002      -0.01916126
H        3.67950488       1.24690564       0.07487911      -0.33502472      -1.47379795       1.07664901       0.08067439
