#---------------rconf={'H': [2.6876187943675074, 1.987648953552389]}---------------
calculate H's hamitonian
calculate H's hamitonian
###Write skf file###
config_a=1s1
config_b=1s1
#r0 for eigenvalue calculation:a,b=[2.6876187943675074, 1.987648953552389],[2.6876187943675074, 1.987648953552389]
config_a=1s1
config_b=1s1
#r0 for eigenvalue calculation:a,b=[2.6876187943675074, 1.987648953552389],[2.6876187943675074, 1.987648953552389]
config_a=1s1
config_b=1s1
#r0 for eigenvalue calculation:a,b=[2.6876187943675074, 1.987648953552389],[2.6876187943675074, 1.987648953552389]
config_a=1s1
config_b=1s1
#r0 for eigenvalue calculation:a,b=[2.6876187943675074, 1.987648953552389],[2.6876187943675074, 1.987648953552389]
Parallel hotcent calculation finished!
